{
 "content": null, 
 "creation": "2015-12-01 11:04:07.959736", 
 "docstatus": 0, 
 "doctype": "Page", 
 "modified": "2015-12-01 11:39:29.699379", 
 "modified_by": "Administrator", 
 "module": "production", 
 "name": "embellishment-qc", 
 "owner": "Administrator", 
 "page_name": "Embellishment QC", 
 "roles": [
  {
   "role": "Administrator"
  }
 ], 
 "script": null, 
 "standard": "Yes", 
 "style": null, 
 "title": "Embellishment QC"
}