{
	"css/garments.min.css": [
		"public/css/garments.css"
	],
	"js/garments.min.js": [
		"public/js/conf.js",
		"public/js/about-us.js",
		"public/js/garments.js",
		"public/js/report.js",
		"public/js/controllers/journal_entry_query_update.js"
	]
}
