{
 "creation": "2016-02-28 17:40:52.096381", 
 "custom_format": 1, 
 "disabled": 0, 
 "doc_type": "Additional Attachment", 
 "docstatus": 0, 
 "doctype": "Print Format", 
 "font": "Default", 
 "idx": 0, 
 "modified": "2016-02-28 18:27:31.080815", 
 "modified_by": "Administrator", 
 "name": "Additional Attachment", 
 "owner": "Administrator", 
 "print_format_builder": 0, 
 "print_format_type": "Server", 
 "standard": "Yes"
}