{
 "add_total_row": 0, 
 "apply_user_permissions": 1, 
 "creation": "2016-01-03 12:00:57.054641", 
 "disabled": 0, 
 "docstatus": 0, 
 "doctype": "Report", 
 "is_standard": "Yes", 
 "modified": "2016-01-03 12:01:02.659568", 
 "modified_by": "Administrator", 
 "module": "production", 
 "name": "Cutting Alter", 
 "owner": "Administrator", 
 "ref_doctype": "Cutting Alter", 
 "report_name": "Cutting Alter", 
 "report_type": "Script Report"
}