{
 "add_total_row": 0, 
 "apply_user_permissions": 1, 
 "creation": "2015-08-17 11:22:04.340547", 
 "disabled": 0, 
 "docstatus": 0, 
 "doctype": "Report", 
 "is_standard": "Yes", 
 "modified": "2015-08-17 14:00:05.956039", 
 "modified_by": "Administrator", 
 "module": "Merchandising", 
 "name": "PO Report", 
 "owner": "Administrator", 
 "ref_doctype": "PO", 
 "report_name": "PO Report", 
 "report_type": "Script Report"
}