{
 "creation": "2015-08-17 11:43:02.687274", 
 "custom_format": 0, 
 "disabled": 0, 
 "doc_type": "Consumption Sheet", 
 "docstatus": 0, 
 "doctype": "Print Format", 
 "font": "Default", 
 "modified": "2015-08-17 11:51:31.288398", 
 "modified_by": "Administrator", 
 "name": "Consumption Sheet Print", 
 "owner": "Administrator", 
 "print_format_builder": 0, 
 "print_format_type": "Server", 
 "standard": "Yes"
}