{
 "add_total_row": 0, 
 "apply_user_permissions": 1, 
 "creation": "2015-12-14 14:04:12.064075", 
 "disabled": 0, 
 "docstatus": 0, 
 "doctype": "Report", 
 "is_standard": "Yes", 
 "modified": "2015-12-14 15:33:24.859115", 
 "modified_by": "Administrator", 
 "module": "production", 
 "name": "Bundle", 
 "owner": "Administrator", 
 "ref_doctype": "Bundle Child", 
 "report_name": "Bundle", 
 "report_type": "Script Report"
}