{
 "content": null, 
 "creation": "2016-02-24 13:12:28.849529", 
 "docstatus": 0, 
 "doctype": "Page", 
 "idx": 0, 
 "modified": "2016-02-24 13:12:28.849529", 
 "modified_by": "Administrator", 
 "module": "Commercial", 
 "name": "export_print_format", 
 "owner": "Administrator", 
 "page_name": "export_print_format", 
 "roles": [
  {
   "role": "Administrator"
  }, 
  {
   "role": "Commercial"
  }
 ], 
 "script": null, 
 "standard": "Yes", 
 "style": null, 
 "title": "Export Print Format"
}