{
 "add_total_row": 0, 
 "apply_user_permissions": 1, 
 "creation": "2015-11-17 11:44:34.106573", 
 "disabled": 0, 
 "docstatus": 0, 
 "doctype": "Report", 
 "is_standard": "Yes", 
 "modified": "2015-11-17 15:03:56.558475", 
 "modified_by": "Administrator", 
 "module": "Merchandising", 
 "name": "Order ReCap Report", 
 "owner": "Administrator", 
 "ref_doctype": "PO Sheet", 
 "report_name": "Order ReCap Report", 
 "report_type": "Script Report"
}