{
 "add_total_row": 0, 
 "apply_user_permissions": 1, 
 "creation": "2015-12-23 17:00:25.215360", 
 "disabled": 0, 
 "docstatus": 0, 
 "doctype": "Report", 
 "is_standard": "Yes", 
 "modified": "2015-12-23 17:00:25.215360", 
 "modified_by": "Administrator", 
 "module": "production", 
 "name": "Production Alter", 
 "owner": "Administrator", 
 "ref_doctype": "Production Alter", 
 "report_name": "Production Alter", 
 "report_type": "Script Report"
}