{
 "add_total_row": 0, 
 "apply_user_permissions": 1, 
 "creation": "2016-06-05 10:31:30.761044", 
 "disabled": 0, 
 "docstatus": 0, 
 "doctype": "Report", 
 "idx": 0, 
 "is_standard": "Yes", 
 "modified": "2016-06-05 10:37:52.543437", 
 "modified_by": "Administrator", 
 "module": "Commercial", 
 "name": "Local Yarn", 
 "owner": "Administrator", 
 "ref_doctype": "LC or SC", 
 "report_name": "Local Yarn", 
 "report_type": "Script Report"
}