{
 "add_total_row": 0, 
 "apply_user_permissions": 1, 
 "creation": "2016-03-19 15:23:34.838518", 
 "disabled": 0, 
 "docstatus": 0, 
 "doctype": "Report", 
 "idx": 0, 
 "is_standard": "Yes", 
 "modified": "2016-05-04 15:39:38.178371",
 "modified_by": "Administrator", 
 "module": "Commercial", 
 "name": "Import Statement", 
 "owner": "Administrator", 
 "ref_doctype": "LC or SC",
 "report_name": "Import Statement", 
 "report_type": "Script Report"
}