{
 "add_total_row": 0, 
 "apply_user_permissions": 1, 
 "creation": "2015-08-05 15:24:18.950142", 
 "disabled": 0, 
 "docstatus": 0, 
 "doctype": "Report", 
 "is_standard": "Yes", 
 "modified": "2015-08-05 15:24:18.950142", 
 "modified_by": "Administrator", 
 "module": "Merchandising", 
 "name": "PI Report", 
 "owner": "Administrator", 
 "ref_doctype": "PI", 
 "report_name": "PI Report", 
 "report_type": "Script Report"
}